<?xml version="1.0" encoding="UTF-8"?>
<svg width="222px" height="152px" viewBox="0 0 222 152" version="1.1" xmlns="http://www.w3.org/2000/svg" xmlns:xlink="http://www.w3.org/1999/xlink">
    <!-- Generator: Sketch 42 (36781) - http://www.bohemiancoding.com/sketch -->
    <title>image-card-copy-bottom</title>
    <desc>Created with Sketch.</desc>
    <defs></defs>
    <g id="Page-1" stroke="none" stroke-width="1" fill="none" fill-rule="evenodd">
        <g id="image-card-copy-bottom">
            <path d="M122,0 L222,0 L222,80 L122,80 L122,0 Z M188.5625,20 L154.4375,20 C153.090172,20 152,21.0901719 152,22.4375 L152,56.5625 C152,57.9098281 153.090172,59 154.4375,59 L188.5625,59 C189.909828,59 191,57.9098281 191,56.5625 L191,22.4375 C191,21.0901719 189.909828,20 188.5625,20 Z M156.875,24.875 L186.125,24.875 L186.125,44.79425 L180.571766,39.2410156 C179.619922,38.291 178.076984,38.291 177.125141,39.2410156 L162.240547,54.125 L156.875,54.125 L156.875,24.875 Z M169.133797,54.125 L178.847844,44.4109531 L186.125,51.6875 L186.125,54.125 L169.133797,54.125 Z M166.625,39.5 C169.317388,39.5 171.5,37.3173882 171.5,34.625 C171.5,31.9326118 169.317388,29.75 166.625,29.75 C163.932612,29.75 161.75,31.9326118 161.75,34.625 C161.75,37.3173882 163.932612,39.5 166.625,39.5 Z M133,119 L172,119 L172,123 L133,123 L133,119 Z M133,112 L211,112 L211,116 L133,116 L133,112 Z M133,133.998101 C133,132.89458 133.897026,132 135.004947,132 L154.995053,132 C156.102355,132 157,132.886706 157,133.998101 L157,138.001899 C157,139.10542 156.102974,140 154.995053,140 L135.004947,140 C133.897645,140 133,139.113294 133,138.001899 L133,133.998101 Z M133,92 L211,92 L211,103 L133,103 L133,92 Z M0,0 L100,0 L100,80 L0,80 L0,0 Z M66.5625,20 L32.4375,20 C31.0901719,20 30,21.0901719 30,22.4375 L30,56.5625 C30,57.9098281 31.0901719,59 32.4375,59 L66.5625,59 C67.9098281,59 69,57.9098281 69,56.5625 L69,22.4375 C69,21.0901719 67.9098281,20 66.5625,20 Z M35,25 L64.25,25 L64.25,44.91925 L58.6967656,39.3660156 C57.7449219,38.416 56.2019844,38.416 55.2501406,39.3660156 L40.3655469,54.25 L35,54.25 L35,25 Z M47,53.7140469 L56.7140469,44 L63.9912031,51.2765469 L63.9912031,53.7140469 L47,53.7140469 Z M44.875,39.75 C47.5673882,39.75 49.75,37.5673882 49.75,34.875 C49.75,32.1826118 47.5673882,30 44.875,30 C42.1826118,30 40,32.1826118 40,34.875 C40,37.5673882 42.1826118,39.75 44.875,39.75 Z M11,119 L50,119 L50,123 L11,123 L11,119 Z M11,112 L89,112 L89,116 L11,116 L11,112 Z M11,133.998101 C11,132.89458 11.8970262,132 13.0049466,132 L32.9950534,132 C34.1023548,132 35,132.886706 35,133.998101 L35,138.001899 C35,139.10542 34.1029738,140 32.9950534,140 L13.0049466,140 C11.8976452,140 11,139.113294 11,138.001899 L11,133.998101 Z M11,92 L89,92 L89,103 L11,103 L11,92 Z" id="Combined-Shape" fill="#8F98A3" fill-rule="nonzero"></path>
            <path d="M123.5,150.5 L220.510002,150.5" id="Line-Copy-4" stroke="#8F98A3" stroke-width="3" stroke-linecap="square"></path>
            <path d="M1.5,150.5 L98.5100021,150.5" id="Line" stroke="#8F98A3" stroke-width="3" stroke-linecap="square"></path>
            <path d="M1.5,79.5 L1.5,150.5" id="Line" stroke="#8F98A3" stroke-width="3" stroke-linecap="square"></path>
            <path d="M98.5,79.5 L98.5,150.5" id="Line-Copy" stroke="#8F98A3" stroke-width="3" stroke-linecap="square"></path>
            <path d="M123.5,79.5 L123.5,150.5" id="Line-Copy-2" stroke="#8F98A3" stroke-width="3" stroke-linecap="square"></path>
            <path d="M220.5,79.5 L220.5,150.5" id="Line-Copy-3" stroke="#8F98A3" stroke-width="3" stroke-linecap="square"></path>
        </g>
    </g>
</svg>