<?xml version="1.0" encoding="UTF-8"?>
<svg width="40px" height="50px" viewBox="0 0 40 50" version="1.1" xmlns="http://www.w3.org/2000/svg" xmlns:xlink="http://www.w3.org/1999/xlink">
    <!-- Generator: Sketch 45.1 (43504) - http://www.bohemiancoding.com/sketch -->
    <title>Shape</title>
    <desc>Created with Sketch.</desc>
    <defs>
        <path d="M20,2 C9.73810526,2 2,10.2378333 2,21.1666667 C2,34.9149167 18.7324211,47.2985 19.4448421,47.8179167 C19.6096842,47.9405833 19.8067368,48 20,48 C20.1932632,48 20.3884211,47.9405833 20.5551579,47.8179167 C21.2656842,47.2985 38,34.9149167 38,21.1666667 C38,10.23975 30.2618947,2 20,2 L20,2 Z M20.5,31 C14.7097273,31 10,26.2883636 10,20.5 C10,14.7097273 14.7097273,10 20.5,10 C26.2883636,10 31,14.7097273 31,20.5 C31,26.2902727 26.2883636,31 20.5,31 L20.5,31 Z" id="path-1"></path>
    </defs>
    <g id="Page-1" stroke="none" stroke-width="1" fill="none" fill-rule="evenodd">
        <g id="Shape">
            <use fill="#E84B37" fill-rule="evenodd" xlink:href="#path-1"></use>
            <path stroke="#FFFFFF" stroke-width="2" d="M20,1 C30.8286738,1 39,9.70098117 39,21.1666667 C39,27.4909836 35.7369832,33.8983389 30.2963768,40.1118672 C28.3838208,42.2961312 26.3213309,44.3127304 24.23626,46.1229927 C23.4857989,46.7745444 22.7779176,47.3592998 22.1286094,47.8722142 C21.704859,48.2069516 21.3709649,48.4602481 21.1477554,48.6234154 C20.8117282,48.8706273 20.4097805,49 20,49 C19.5887977,49 19.1833609,48.869833 18.8557122,48.625955 C18.6361902,48.4659044 18.2959535,48.2079404 17.8709407,47.8722885 C17.2218207,47.3596491 16.5136543,46.774729 15.7629605,46.12301 C13.6780981,44.313025 11.6154705,42.2962544 9.70289458,40.1118465 C4.26278316,33.8985391 1,27.4910422 1,21.1666667 C1,9.69972021 9.17071337,1 20,1 Z M20.5,30 C25.7367659,30 30,25.737301 30,20.5 C30,15.262699 25.7367659,11 20.5,11 C15.262012,11 11,15.262012 11,20.5 C11,25.7367659 15.262699,30 20.5,30 Z"></path>
        </g>
    </g>
</svg>