<?xml version="1.0" encoding="utf-8"?>
<!-- Generator: Adobe Illustrator 19.2.1, SVG Export Plug-In . SVG Version: 6.00 Build 0)  -->
<svg version="1.1" xmlns="http://www.w3.org/2000/svg" xmlns:xlink="http://www.w3.org/1999/xlink" x="0px" y="0px" width="24px"
	 height="24px" viewBox="0 0 24 24" enable-background="new 0 0 24 24" xml:space="preserve">
<g id="Filled_Icons_1_">
	<g id="Filled_Icons">
		<path d="M12,0C5.383,0,0,5.383,0,12c0,3.18,1.232,6.177,3.469,8.438l0.001,0.001C5.743,22.735,8.772,24,12,24
			c3.234,0,6.268-1.27,8.542-3.573C22.772,18.166,24,15.174,24,12C24,5.383,18.617,0,12,0z M20.095,19.428
			c-1.055-0.626-5.165-2.116-5.595-2.275v-1.848c0.502-0.309,1.384-1.107,1.49-2.935c0.386-0.226,0.63-0.727,0.63-1.37
			c0-0.578-0.197-1.043-0.52-1.294c0.242-0.757,0.681-2.145,0.385-3.327C16.138,4.992,14.256,4.5,12.75,4.5
			c-1.342,0-2.982,0.391-3.569,1.456C8.477,5.922,8.085,6.229,7.891,6.487c-0.635,0.838-0.216,2.368,0.02,3.21
			C7.582,9.946,7.38,10.415,7.38,11c0,0.643,0.244,1.144,0.63,1.37c0.106,1.828,0.989,2.626,1.49,2.935v1.848
			c-0.385,0.144-4.464,1.625-5.583,2.288C2.04,17.405,1,14.782,1,12C1,5.935,5.935,1,12,1s11,4.935,11,11
			C23,14.775,21.965,17.394,20.095,19.428z"/>
	</g>
</g>
</svg>
